Division,WeightClassKg,Place,Name,Team,BodyweightKg,Best3SquatKg,Best3BenchKg,Best3DeadliftKg,TotalKg,Equipment,Event,Sex
Boys,51.71,1,Josue Gonzalez,Cleveland,51.35,70.31,63.5,102.06,235.87,Single-ply,SBD,M
Boys,51.71,2,Jaime Caltzonzin,Victoria West,51.53,83.91,49.9,90.72,224.53,Single-ply,SBD,M
Boys,,NS,Adan Hernandez,Victoria West,,,,,,Single-ply,SBD,M
Boys,,NS,Aaron Mata,Ganado,,,,,,Single-ply,SBD,M
Boys,,NS,Jacob Decker,Victoria West,,,,,,Single-ply,SBD,M
Boys,55.79,1,Damien Garza,Van Vleck,55.34,136.08,86.18,145.15,367.41,Single-ply,SBD,M
Boys,55.79,2,Freddy Samano,Victoria West,55.34,129.27,65.77,117.93,312.98,Single-ply,SBD,M
Boys,55.79,3,Christopher Rios,Cleveland,54.25,102.06,54.43,115.67,272.16,Single-ply,SBD,M
Boys,,NS,Isaac Garza,Ganado,,,,,,Single-ply,SBD,M
Boys,59.87,1,Jeremiah Zelaya,Victoria East,57.06,199.58,111.13,206.38,517.1,Single-ply,SBD,M
Boys,59.87,2,Tyrin Brito,Ganado,59.87,136.08,63.5,156.49,356.07,Single-ply,SBD,M
Boys,59.87,3,Josh Gomez,Louise,58.15,111.13,61.23,97.52,269.89,Single-ply,SBD,M
Boys,59.87,DQ,Dillon Long,El Maton Tidehaven,59.42,,,,,Single-ply,SBD,M
Boys,67.13,1,Osvaldo Reta,Cleveland,67.13,142.88,102.06,176.9,421.84,Single-ply,SBD,M
Boys,67.13,2,Edwin Uribe,Cleveland,67.13,151.95,79.38,172.37,403.7,Single-ply,SBD,M
Boys,67.13,3,Brandon Espinoza,Van Vleck,66.68,142.88,86.18,165.56,394.63,Single-ply,SBD,M
Boys,67.13,4,Brytin Brown,Bloomington,66.77,151.95,83.91,158.76,394.63,Single-ply,SBD,M
Boys,67.13,5,Gaven Cameron,Danbury,60.24,129.27,88.45,136.08,353.8,Single-ply,SBD,M
Boys,67.13,6,Seth Birmingham,Victoria West,63.23,131.54,74.84,124.74,331.12,Single-ply,SBD,M
Boys,67.13,7,Dominic Diaz,Victoria West,67.04,124.74,68.04,136.08,328.85,Single-ply,SBD,M
Boys,67.13,8,Ian Martin,Danbury,62.69,106.59,56.7,106.59,269.89,Single-ply,SBD,M
Boys,67.13,DQ,Clayton Johnson,Danbury,66.32,92.99,,,,Single-ply,SBD,M
Boys,67.13,DQ,Reece Knebel,El Maton Tidehaven,66.04,,,,,Single-ply,SBD,M
Boys,74.84,1,Lane Labuave,Danbury,72.39,181.44,106.59,181.44,469.47,Single-ply,SBD,M
Boys,74.84,2,Carlos Rubio,El Maton Tidehaven,70.31,158.76,95.25,165.56,419.57,Single-ply,SBD,M
Boys,74.84,3,Elmer Perez,El Maton Tidehaven,70.76,149.69,83.91,165.56,399.16,Single-ply,SBD,M
Boys,74.84,4,Ball Chiwinkunpathom,Louise,74.84,99.79,68.04,90.72,258.55,Single-ply,SBD,M
Boys,,NS,Lance Genzer,Ganado,,,,,,Single-ply,SBD,M
Boys,,NS,Chris Esquivel,Victoria West,,,,,,Single-ply,SBD,M
Boys,74.84,DQ,Jeremy Hinkosa,Bloomington,68.67,,,,,Single-ply,SBD,M
Boys,74.84,DQ,Steven Figueroa,Cleveland,68.31,,,,,Single-ply,SBD,M
Boys,74.84,DQ,Connor Stevens,Van Vleck,70.76,165.56,79.38,,,Single-ply,SBD,M
Boys,82.1,1,Tre Evans,Edna,77.02,204.12,138.35,206.38,548.85,Single-ply,SBD,M
Boys,82.1,2,Joseph Saavedra,El Maton Tidehaven,80.29,188.24,102.06,181.44,471.74,Single-ply,SBD,M
Boys,82.1,3,Trenton Carter,Victoria West,75.57,174.63,111.13,161.03,446.79,Single-ply,SBD,M
Boys,82.1,4,Derek Hodges,Cleveland,77.2,156.49,88.45,170.1,415.04,Single-ply,SBD,M
Boys,82.1,5,Aaron Gomez,Louise,80.29,129.27,79.38,136.08,344.73,Single-ply,SBD,M
Boys,82.1,6,Aaron Pounds,Danbury,81.65,106.59,70.31,131.54,308.44,Single-ply,SBD,M
Boys,82.1,DQ,Derek Luna,Louise,82.1,161.03,,,,Single-ply,SBD,M
Boys,89.81,1,Aaron Sims,Cleveland,87,226.8,113.4,204.12,544.31,Single-ply,SBD,M
Boys,89.81,2,Danny Williams,Louise,89.27,167.83,97.52,190.51,455.86,Single-ply,SBD,M
Boys,89.81,3,Orlando Moreno,Victoria West,83.01,156.49,92.99,149.69,399.16,Single-ply,SBD,M
Boys,89.81,4,Leo Torres,Louise,84.28,138.35,83.91,161.03,383.29,Single-ply,SBD,M
Boys,89.81,5,Matteau Loa,Victoria West,88.81,140.61,63.5,147.42,351.53,Single-ply,SBD,M
Boys,,NS,Tim Mendez,Victoria West,,,,,,Single-ply,SBD,M
Boys,,NS,Stephen Kelly,Ganado,,,,,,Single-ply,SBD,M
Boys,99.79,1,Jonathan Oliedo,Victoria East,97.79,294.84,190.51,213.19,698.53,Single-ply,SBD,M
Boys,99.79,2,Darean Sauceda,Victoria East,97.7,215.46,147.42,210.92,573.79,Single-ply,SBD,M
Boys,99.79,3,Caleb Smith #10,Victoria West,95.44,215.46,115.67,163.29,494.42,Single-ply,SBD,M
Boys,99.79,4,Tyler Baladez,Victoria West,95.53,192.78,113.4,176.9,483.08,Single-ply,SBD,M
Boys,99.79,5,Ray Buckner,Victoria West,98.16,174.63,104.33,188.24,467.2,Single-ply,SBD,M
Boys,99.79,6,Josh Figueroa,Van Vleck,96.43,183.7,106.59,170.1,460.4,Single-ply,SBD,M
Boys,99.79,7,Micah Coleman,El Maton Tidehaven,97.52,158.76,111.13,174.63,444.52,Single-ply,SBD,M
Boys,99.79,8,Dd Gaona,Louise,97.43,163.29,117.93,149.69,430.91,Single-ply,SBD,M
Boys,99.79,9,Nick Rodriguez #7,El Maton Tidehaven,96.25,124.74,90.72,151.95,367.41,Single-ply,SBD,M
Boys,99.79,10,Marcelino Martinez,Van Vleck,94.44,124.74,70.31,124.74,319.78,Single-ply,SBD,M
Boys,99.79,DQ,Bradley Flores,Bloomington,91.26,,,,,Single-ply,SBD,M
Boys,109.77,1,Aaron Vasquez,Victoria East,108.68,281.23,172.37,206.38,659.98,Single-ply,SBD,M
Boys,109.77,2,Jack Carmona,Victoria East,107.59,254.01,120.2,213.19,587.4,Single-ply,SBD,M
Boys,109.77,3,Marcos Hernandez,Cleveland,100.24,224.53,129.27,219.99,573.79,Single-ply,SBD,M
Boys,109.77,4,Christian Martinez,Van Vleck,101.15,167.83,90.72,142.88,401.43,Single-ply,SBD,M
Boys,109.77,5,Tj Potenza,Cleveland,101.51,142.88,92.99,158.76,394.63,Single-ply,SBD,M
Boys,109.77,6,Noel Hunter,Danbury,102.15,138.35,92.99,156.49,387.82,Single-ply,SBD,M
Boys,109.77,7,Damien Diaz,Victoria West,103.51,158.76,74.84,142.88,376.48,Single-ply,SBD,M
Boys,109.77,DQ,Lane Elizondo,Van Vleck,107.95,,,,,Single-ply,SBD,M
Boys,124.74,1,Joseph Cotie,Cleveland,124.1,306.17,190.51,244.94,741.62,Single-ply,SBD,M
Boys,124.74,2,Jaden Barnett,Cleveland,116.75,254.01,127.01,226.8,607.81,Single-ply,SBD,M
Boys,124.74,3,Tyler Neese,Victoria West,124.56,249.48,142.88,192.78,585.13,Single-ply,SBD,M
Boys,124.74,4,Kadrian Gonzales,Victoria West,117.21,213.19,133.81,224.53,571.53,Single-ply,SBD,M
Boys,124.74,5,Jerry Johnson,El Maton Tidehaven,117.57,226.8,124.74,181.44,532.97,Single-ply,SBD,M
Boys,124.74,6,Eloy Mendez,Victoria West,118.21,208.65,142.88,161.03,512.56,Single-ply,SBD,M
Boys,124.74,7,Chris Vasquez,Louise,114.58,190.51,97.52,167.83,455.86,Single-ply,SBD,M
Boys,124.74,8,Marcus Montemayor,Van Vleck,119.93,172.37,106.59,170.1,449.06,Single-ply,SBD,M
Boys,124.74,9,Christian Shores,Danbury,119.29,156.49,122.47,156.49,435.45,Single-ply,SBD,M
Boys,124.74,10,Javy Rodriguez,Ganado,118.48,167.83,90.72,158.76,417.3,Single-ply,SBD,M
Boys,124.74,11,Alex Campuzano,Ganado,113.99,163.29,81.65,165.56,410.5,Single-ply,SBD,M
Boys,124.74,12,Karson Holly,Victoria West,117.66,140.61,65.77,151.95,358.34,Single-ply,SBD,M
Boys,124.74,13,Joshua Zatopek,Victoria West,114.21,142.88,77.11,124.74,344.73,Single-ply,SBD,M
Boys,124.74,DQ,Dean Ramsey,Ganado,120.56,181.44,104.33,192.78,,Single-ply,SBD,M
Boys,124.74+,1,Alex Garza,Victoria East,129,272.16,158.76,199.58,630.49,Single-ply,SBD,M
Boys,124.74+,2,Keegan Carillo,El Maton Tidehaven,138.35,226.8,113.4,183.7,523.9,Single-ply,SBD,M
Boys,124.74+,3,Patrick Perkins,Van Vleck,163.93,145.15,149.69,174.63,469.47,Single-ply,SBD,M
Boys,,NS,Luis Briones,Ganado,,,,,,Single-ply,SBD,M
Boys,,NS,Gabriel Watts,Victoria East,,,,,,Single-ply,SBD,M
Boys,,NS,Adam McDonald,Van Vleck,,,,,,Single-ply,SBD,M
Boys,,NS,Austin Hill #3,Van Vleck,,,,,,Single-ply,SBD,M
Boys,,NS,Jose Martinez,El Maton Tidehaven,,,,,,Single-ply,SBD,M
