Division,WeightClassKg,Place,Name,Team,BodyweightKg,Best3SquatKg,Best3BenchKg,Best3DeadliftKg,TotalKg,Equipment,Event,Sex
Boys,51.71,1,Noah Vasquez,Palmer,50.98,127.01,81.65,133.81,342.46,Single-ply,SBD,M
Boys,51.71,2,Jose Gonzalez #2,Hillsboro,48.17,79.38,47.63,113.4,240.4,Single-ply,SBD,M
Boys,51.71,DQ,Willie Brister,Hillsboro,51.71,83.91,,,,Single-ply,SBD,M
Boys,55.79,1,Eduardo Perez,Venus,54.7,147.42,79.38,151.95,378.75,Single-ply,SBD,M
Boys,55.79,2,Bob Hernandez,Malakoff Cross Roads,53.52,113.4,70.31,131.54,315.25,Single-ply,SBD,M
Boys,55.79,3,Will Hooten,Waxahachie Life,54.98,97.52,58.97,106.59,263.08,Single-ply,SBD,M
Boys,55.79,4,Brayden Bell,Godley,55.79,99.79,52.16,108.86,260.82,Single-ply,SBD,M
Boys,59.87,1,Seth Shipp,Rice,58.69,151.95,95.25,142.88,390.09,Single-ply,SBD,M
Boys,59.87,2,Rodrigo Hernandez,Hillsboro,59.69,136.08,86.18,167.83,390.09,Single-ply,SBD,M
Boys,59.87,3,Zaahid Abdullah,Waxahachie Life,58.42,145.15,81.65,158.76,385.55,Single-ply,SBD,M
Boys,59.87,4,Sean Busby,Teague,59.51,142.88,86.18,151.95,381.02,Single-ply,SBD,M
Boys,59.87,5,Tyson Ramirez,Palmer,59.6,124.74,77.11,161.03,362.87,Single-ply,SBD,M
Boys,59.87,6,Alex Schaefer,Venus,56.43,136.08,77.11,142.88,356.07,Single-ply,SBD,M
Boys,59.87,7,Corbin Donoho,Corsicana Mildred,57.97,129.27,77.11,142.88,349.27,Single-ply,SBD,M
Boys,59.87,8,Zach Callaway,Whitney,56.43,117.93,70.31,131.54,319.78,Single-ply,SBD,M
Boys,59.87,9,Scott Fox,Robinson,59.33,111.13,68.04,122.47,301.64,Single-ply,SBD,M
Boys,67.13,1,Juan Hernandez #4,Palmer,60.69,165.56,102.06,174.63,442.25,Single-ply,SBD,M
Boys,67.13,2,Israel Castillo,Venus,66.86,174.63,86.18,174.63,435.45,Single-ply,SBD,M
Boys,67.13,3,Salomon Torres,Waco University,67.13,158.76,83.91,170.1,412.77,Single-ply,SBD,M
Boys,67.13,4,Osvaldo Atunez,Hillsboro,64.41,147.42,106.59,142.88,396.89,Single-ply,SBD,M
Boys,67.13,5,Juan Perez #10,Rice,65.59,147.42,102.06,147.42,396.89,Single-ply,SBD,M
Boys,67.13,6,Kameron Sisson,Whitney,65.41,142.88,86.18,156.49,385.55,Single-ply,SBD,M
Boys,67.13,7,Manuel Vilegas,Blooming Grove,64.95,136.08,92.99,145.15,374.21,Single-ply,SBD,M
Boys,67.13,8,Silva Jose,Palmer,64.68,122.47,83.91,165.56,371.95,Single-ply,SBD,M
Boys,67.13,9,Andrew Adamez,Godley,61.05,147.42,79.38,136.08,362.87,Single-ply,SBD,M
Boys,67.13,10,Jacob Lynch,Rice,62.87,136.08,79.38,147.42,362.87,Single-ply,SBD,M
Boys,67.13,11,Isidro Padilla,Rice,64.23,124.74,81.65,147.42,353.8,Single-ply,SBD,M
Boys,67.13,12,Lucas Zepeda,Waxahachie Life,65.95,138.35,61.23,145.15,344.73,Single-ply,SBD,M
Boys,67.13,13,Zach Horner,Corsicana Mildred,60.6,131.54,72.57,136.08,340.19,Single-ply,SBD,M
Boys,67.13,14,Try Atkeisson,Corsicana Mildred,64.23,111.13,68.04,115.67,294.84,Single-ply,SBD,M
Boys,67.13,15,Austin Zodle,Palmer,62.87,111.13,65.77,113.4,290.3,Single-ply,SBD,M
Boys,67.13,16,Cameron Buck,Venus,62.6,102.06,61.23,122.47,285.76,Single-ply,SBD,M
Boys,67.13,17,Edgar Garcia,China Spring,61.05,95.25,49.9,99.79,244.94,Single-ply,SBD,M
Boys,67.13,DQ,Estefano Lopez,Waco University,60.51,,,,,Single-ply,SBD,M
Boys,67.13,DQ,Micah Thompson,Teague,62.96,136.08,,,,Single-ply,SBD,M
Boys,74.84,1,Emanuel Silva,Venus,73.3,206.38,104.33,192.78,503.49,Single-ply,SBD,M
Boys,74.84,2,Jared Leal,Palmer,71.12,167.83,120.2,165.56,453.59,Single-ply,SBD,M
Boys,74.84,3,Fallon Little,Corsicana Mildred,72.03,151.95,92.99,183.7,428.64,Single-ply,SBD,M
Boys,74.84,4,Jason Hernandez,Malakoff Cross Roads,67.77,124.74,83.91,161.03,369.68,Single-ply,SBD,M
Boys,74.84,5,Nick Gonzalez,Hillsboro,74.39,138.35,95.25,124.74,358.34,Single-ply,SBD,M
Boys,74.84,6,Logan Sauer,Robinson,71.58,136.08,81.65,122.47,340.19,Single-ply,SBD,M
Boys,74.84,7,Mark Zavala,Palmer,71.67,92.99,72.57,122.47,288.03,Single-ply,SBD,M
Boys,74.84,DQ,Chance Garriott,Meridian,71.49,,,,,Single-ply,SBD,M
Boys,74.84,DQ,Trevor Farris,Teague,72.67,,,,,Single-ply,SBD,M
Boys,82.1,1,Devin Lummus,Godley,82.1,190.51,108.86,188.24,487.61,Single-ply,SBD,M
Boys,82.1,2,Ben Roberson,Robinson,79.92,183.7,113.4,188.24,485.34,Single-ply,SBD,M
Boys,82.1,3,Ryan Hilty,Whitney,80.47,179.17,102.06,181.44,462.66,Single-ply,SBD,M
Boys,82.1,4,Connor Molkenbuhr,China Spring,76.57,163.29,115.67,176.9,455.86,Single-ply,SBD,M
Boys,82.1,5,Shane Carroll,Waxahachie Life,80.83,154.22,104.33,158.76,417.3,Single-ply,SBD,M
Boys,82.1,6,Rustin Goff,Blooming Grove,78.02,136.08,86.18,188.24,410.5,Single-ply,SBD,M
Boys,82.1,7,Chris Slater,China Spring,76.48,142.88,102.06,156.49,401.43,Single-ply,SBD,M
Boys,82.1,8,Joshua Gunn,Robinson,81.1,149.69,92.99,147.42,390.09,Single-ply,SBD,M
Boys,82.1,9,Dylan Roudebush,Alvarado,77.93,147.42,97.52,142.88,387.82,Single-ply,SBD,M
Boys,82.1,10,Cooper Wagenschein,Robinson,77.56,149.69,79.38,151.95,381.02,Single-ply,SBD,M
Boys,82.1,11,Ismael Lopez,Hillsboro,81.19,147.42,90.72,117.93,356.07,Single-ply,SBD,M
Boys,82.1,12,Dalton Wagenschein,Robinson,77.02,129.27,68.04,136.08,333.39,Single-ply,SBD,M
Boys,82.1,DQ,Omero Arrioga,Teague,75.11,,,,,Single-ply,SBD,M
Boys,82.1,DQ,Azaya Patrick,Teague,75.84,181.44,,,,Single-ply,SBD,M
Boys,82.1,DQ,Tondre Parsons,Waco University,82.1,,,,,Single-ply,SBD,M
Boys,82.1,DQ,Doug Varcasia,China Spring,78.56,,,,,Single-ply,SBD,M
Boys,82.1,DQ,Brandon Rowe,China Spring,77.38,,,,,Single-ply,SBD,M
Boys,82.1,DQ,Javin Hebert,Godley,78.38,156.49,,,,Single-ply,SBD,M
Boys,82.1,DQ,Nolan Underwood,Venus,76.48,,,,,Single-ply,SBD,M
Boys,89.81,1,Nathan Vick,Teague,84.73,195.04,151.95,192.78,539.77,Single-ply,SBD,M
Boys,89.81,2,Brian Black,Palmer,88.81,192.78,133.81,201.85,528.44,Single-ply,SBD,M
Boys,89.81,3,Jose Alcantar,Venus,87.63,210.92,106.59,197.31,514.83,Single-ply,SBD,M
Boys,89.81,4,Matthew Freeman,Venus,86.09,195.04,120.2,192.78,508.02,Single-ply,SBD,M
Boys,89.81,5,David Ramirez,Waxahachie Life,89.27,183.7,127.01,195.04,505.76,Single-ply,SBD,M
Boys,89.81,6,Dylan Myers,Rice,84.19,204.12,120.2,174.63,498.95,Single-ply,SBD,M
Boys,89.81,7,Ingnacio Carmona,Hillsboro,85.73,188.24,108.86,190.51,487.61,Single-ply,SBD,M
Boys,89.81,8,Hunter Schneck,Godley,85,181.44,117.93,181.44,480.81,Single-ply,SBD,M
Boys,89.81,9,Josh Begesse,China Spring,89.81,188.24,102.06,176.9,467.2,Single-ply,SBD,M
Boys,89.81,10,Rolando Ramirez,Hillsboro,85.32,179.17,104.33,179.17,462.66,Single-ply,SBD,M
Boys,89.81,11,Terry Murphy,Waco University,83.55,172.37,111.13,172.37,455.86,Single-ply,SBD,M
Boys,89.81,12,Tony Sotero,Hillsboro,88.45,172.37,102.06,174.63,449.06,Single-ply,SBD,M
Boys,89.81,13,Erik Fisk,Godley,86.27,176.9,90.72,174.63,442.25,Single-ply,SBD,M
Boys,89.81,14,Logan Pendley,Venus,82.83,147.42,92.99,149.69,390.09,Single-ply,SBD,M
Boys,89.81,15,Kaden Mattingly,Malakoff Cross Roads,89.81,124.74,83.91,151.95,360.61,Single-ply,SBD,M
Boys,89.81,16,Matt Christian,Palmer,83.55,145.15,86.18,120.2,351.53,Single-ply,SBD,M
Boys,89.81,17,Jorge Diaz,Teague,85.37,129.27,77.11,136.08,342.46,Single-ply,SBD,M
Boys,89.81,18,Michael Gabrielsen,Robinson,89.81,113.4,83.91,136.08,333.39,Single-ply,SBD,M
Boys,89.81,19,Jaden Kistler,Corsicana Mildred,88.72,120.2,72.57,120.2,312.98,Single-ply,SBD,M
Boys,89.81,DQ,Logan Schuetz,China Spring,87.45,,,,,Single-ply,SBD,M
Boys,89.81,DQ,Garrett Moorfield,China Spring,87.63,142.88,,,,Single-ply,SBD,M
Boys,89.81,DQ,Richard Banks,Rice,87.91,129.27,,,,Single-ply,SBD,M
Boys,99.79,1,Guadalupe Silva,Venus,96.34,213.19,136.08,217.72,566.99,Single-ply,SBD,M
Boys,99.79,2,Justin Horn #1,Corsicana Mildred,93.08,213.19,111.13,183.7,508.02,Single-ply,SBD,M
Boys,99.79,3,Brady King,Robinson,97.79,197.31,117.93,185.97,501.22,Single-ply,SBD,M
Boys,99.79,4,Tony Cortez,Hillsboro,93.44,149.69,136.08,192.78,478.54,Single-ply,SBD,M
Boys,99.79,5,Garrett Smith,Venus,93.08,167.83,106.59,197.31,471.74,Single-ply,SBD,M
Boys,99.79,6,Isiah Bell,Teague,91.08,181.44,102.06,183.7,467.2,Single-ply,SBD,M
Boys,99.79,7,Jackson Justus,Whitney,97.34,174.63,97.52,165.56,437.72,Single-ply,SBD,M
Boys,99.79,8,Chaas Firth,Whitney,91.26,151.95,83.91,176.9,412.77,Single-ply,SBD,M
Boys,99.79,9,Saul Diaz,Rice,96.71,158.76,90.72,158.76,408.23,Single-ply,SBD,M
Boys,99.79,10,Gragory Strange,Waxahachie Life,92.35,147.42,81.65,147.42,376.48,Single-ply,SBD,M
Boys,109.77,1,Marcus Williams,Teague,107.86,254.01,147.42,254.01,655.44,Single-ply,SBD,M
Boys,109.77,2,Ramiro Reyes,Hillsboro,105.69,210.92,117.93,204.12,532.97,Single-ply,SBD,M
Boys,109.77,3,Reuel Barrett,Waxahachie Life,108.77,190.51,102.06,199.58,492.15,Single-ply,SBD,M
Boys,109.77,4,Andy Mera,Waxahachie Life,104.05,172.37,140.61,176.9,489.88,Single-ply,SBD,M
Boys,109.77,5,Luis Gonzalez,Hillsboro,106.14,165.56,113.4,199.58,478.54,Single-ply,SBD,M
Boys,109.77,6,Joseph Williams,Corsicana Mildred,102.33,199.58,113.4,142.88,455.86,Single-ply,SBD,M
Boys,109.77,7,Pablo Cabral,Rice,109.77,147.42,124.74,142.88,415.04,Single-ply,SBD,M
Boys,109.77,8,Ray Reimim,Corsicana Mildred,105.69,136.08,70.31,117.93,324.32,Single-ply,SBD,M
Boys,124.74,1,Andrew Toledo,Robinson,124.74,204.12,115.67,208.65,528.44,Single-ply,SBD,M
Boys,124.74,2,Shelby Wilder,Waxahachie Life,112.13,204.12,115.67,206.38,526.17,Single-ply,SBD,M
Boys,124.74,3,Joe Fallwell,Whitney,111.67,181.44,117.93,197.31,496.68,Single-ply,SBD,M
Boys,124.74,4,Timmy Collums,Corsicana Mildred,115.67,192.78,145.15,136.08,474,Single-ply,SBD,M
Boys,124.74,5,Caleb Hernadez,Palmer,118.57,142.88,97.52,131.54,371.95,Single-ply,SBD,M
Boys,124.74,DQ,Logan Begesse,China Spring,119.11,226.8,,,,Single-ply,SBD,M
Boys,124.74,DQ,Tracey Linton,Waco University,123.56,,,,,Single-ply,SBD,M
Boys,124.74+,1,David Garcia #9,Alvarado,145.78,267.62,199.58,247.21,714.41,Single-ply,SBD,M
Boys,124.74+,2,Isais Hernandez,Hillsboro,129.27,272.16,151.95,249.48,673.58,Single-ply,SBD,M
Boys,124.74+,3,Colton Deal,Waxahachie Life,145.51,167.83,102.06,188.24,458.13,Single-ply,SBD,M
Boys,124.74+,4,Trace Snyder,Robinson,125.28,136.08,81.65,167.83,385.55,Single-ply,SBD,M
Boys,124.74+,DQ,Dexter Elmore,Waco University,125.55,233.6,138.35,,,Single-ply,SBD,M
Boys,,NS,Andres Ulloa-Cedillo,Rice,,,,,,Single-ply,SBD,M
Boys,,NS,Zane Gifford,Rice,,,,,,Single-ply,SBD,M
Boys,,NS,AJ Harris,Rice,,,,,,Single-ply,SBD,M
Boys,,NS,Willie Young,Rice,,,,,,Single-ply,SBD,M
Boys,,NS,Tyson Boen,Robinson,,,,,,Single-ply,SBD,M
Boys,,NS,Preston Turner,Malakoff Cross Roads,,,,,,Single-ply,SBD,M
Boys,,NS,Matthew Moore,Malakoff Cross Roads,,,,,,Single-ply,SBD,M
Boys,,NS,Tyler Johnson,Malakoff Cross Roads,,,,,,Single-ply,SBD,M
Boys,,NS,Vincent Resendez,Robinson,,,,,,Single-ply,SBD,M
Boys,,NS,Jacob Rhoads,Waxahachie Life,,,,,,Single-ply,SBD,M
Boys,,NS,Logan Prather,Godley,,,,,,Single-ply,SBD,M
Boys,,NS,Mason Hiler,Godley,,,,,,Single-ply,SBD,M
Boys,,NS,Gunner Castleberry,Godley,,,,,,Single-ply,SBD,M
Boys,,NS,Jordan Bass,Godley,,,,,,Single-ply,SBD,M
Boys,,NS,Ethan Thomas,China Spring,,,,,,Single-ply,SBD,M
Boys,,NS,Clint Ewing,Corsicana Mildred,,,,,,Single-ply,SBD,M
Boys,,NS,Bob Johnson,Meridian,,,,,,Single-ply,SBD,M
Boys,,NS,Nathan Williams,Meridian,,,,,,Single-ply,SBD,M
Boys,,NS,Henry Martinez,Palmer,,,,,,Single-ply,SBD,M
Boys,,NS,Justin Ewing,Corsicana Mildred,,,,,,Single-ply,SBD,M
