Division,WeightClassKg,Place,Name,Team,BodyweightKg,Best3SquatKg,Best3BenchKg,Best3DeadliftKg,TotalKg,Equipment,Event,Sex
Boys,55.79,1,Joseph Herrera #2,Navasota,51.94,145.15,77.11,129.27,351.53,Single-ply,SBD,M
Boys,51.71,2,Sam Morris,College Station,51.62,124.74,74.84,115.67,315.25,Single-ply,SBD,M
Boys,51.71,3,Grayson Danner,Conroe The Woodlands,51.35,104.33,68.04,124.74,297.1,Single-ply,SBD,M
Boys,51.71,4,Dylan Jenkins,Conroe The Woodlands,51.71,97.52,52.16,120.2,269.89,Single-ply,SBD,M
Boys,51.71,5,Leonal Gonzalez,Navasota,48.26,108.86,49.9,108.86,267.62,Single-ply,SBD,M
Boys,51.71,6,Layton Noey,Normangee,49.99,90.72,52.16,111.13,254.01,Single-ply,SBD,M
Boys,51.71,7,Ryan Kerr,Conroe Woodlands College Park,50.8,86.18,52.16,102.06,240.4,Single-ply,SBD,M
Boys,51.71,8,Axel Morfin,Conroe Woodlands College Park,43.54,72.57,43.09,90.72,206.38,Single-ply,SBD,M
Boys,59.87,1,Jeremy Charles,Willis,55.97,158.76,111.13,170.1,439.98,Single-ply,SBD,M
Boys,59.87,2,JC Hooper,Montgomery,55.97,145.15,79.38,163.29,387.82,Single-ply,SBD,M
Boys,55.79,3,Cooper Houston,Montgomery,54.52,140.61,74.84,133.81,349.27,Single-ply,SBD,M
Boys,59.87,4,Tery Barnes,Willis,55.97,124.74,86.18,133.81,344.73,Single-ply,SBD,M
Boys,55.79,5,Brandon Felan,Conroe Woodlands College Park,55.43,120.2,81.65,138.35,340.19,Single-ply,SBD,M
Boys,59.87,6,Kevin Mueller,Waller,55.97,127.01,77.11,136.08,340.19,Single-ply,SBD,M
Boys,55.79,7,Nick Young,Rockdale,54.79,113.4,72.57,145.15,331.12,Single-ply,SBD,M
Boys,55.79,8,Lazaro Garcia,Navasota,54.98,113.4,77.11,136.08,326.59,Single-ply,SBD,M
Boys,55.79,9,Brandon Stockerl,Conroe The Woodlands,55.16,99.79,58.97,127.01,285.76,Single-ply,SBD,M
Boys,55.79,10,David Lauderbaugh,Conroe The Woodlands,55.43,83.91,56.7,122.47,263.08,Single-ply,SBD,M
Boys,55.79,DQ,Willie Ihlenfeldt,Caldwell,55.79,,,,,Single-ply,SBD,M
Boys,59.87,DQ,Mathew Fontana,Navasota,55.97,,,,,Single-ply,SBD,M
Boys,55.79,DQ,Blaine Wootan,College Station,55.16,145.15,63.5,,,Single-ply,SBD,M
Boys,59.87,1,Victor Aguilar #1,Caldwell,58.97,238.14,136.08,201.85,576.06,Single-ply,SBD,M
Boys,67.13,2,Darius Mallard,Navasota,60.06,161.03,97.52,208.65,467.2,Single-ply,SBD,M
Boys,59.87,3,Kyle Stafford,Navasota,59.69,158.76,81.65,149.69,390.09,Single-ply,SBD,M
Boys,59.87,4,Daneil Segura,Magnolia,58.69,133.81,86.18,165.56,385.55,Single-ply,SBD,M
Boys,59.87,5,Judge Hansen,College Station,59.87,145.15,79.38,156.49,381.02,Single-ply,SBD,M
Boys,59.87,6,David Cadieux,Waller,59.42,142.88,70.31,158.76,371.95,Single-ply,SBD,M
Boys,67.13,7,Rudy Mueller,Waller,60.06,124.74,77.11,140.61,342.46,Single-ply,SBD,M
Boys,59.87,8,Jacob Dodson,Navasota,58.06,113.4,79.38,136.08,328.85,Single-ply,SBD,M
Boys,59.87,DQ,Jacob Cadieux,Waller,57.42,145.15,68.04,,,Single-ply,SBD,M
Boys,74.84,1,Franteric Powell,Navasota,67.36,208.65,113.4,206.38,528.44,Single-ply,SBD,M
Boys,74.84,2,Reggie Davis,College Station A&M Cons,67.31,183.7,129.27,199.58,512.56,Single-ply,SBD,M
Boys,67.13,3,Daniel Iselt,Giddings,66.22,188.24,120.2,192.78,501.22,Single-ply,SBD,M
Boys,67.13,4,David Taylor,College Station A&M Cons,63.59,188.24,95.25,204.12,487.61,Single-ply,SBD,M
Boys,67.13,5,Garrett Shantz,Montgomery,64.05,176.9,113.4,181.44,471.74,Single-ply,SBD,M
Boys,67.13,6,John-Bradley Green,Conroe Woodlands College Park,66.95,183.7,88.45,176.9,449.06,Single-ply,SBD,M
Boys,74.84,7,Victor De La Garza,Brookshire Royal,67.31,165.56,106.59,174.63,446.79,Single-ply,SBD,M
Boys,67.13,8,Sam Beal,College Station,67.13,158.76,104.33,167.83,430.91,Single-ply,SBD,M
Boys,67.13,9,Jacob Thompson,Waller,65.68,165.56,81.65,179.17,426.38,Single-ply,SBD,M
Boys,67.13,10,Jacob Rosier,Caldwell,65.23,163.29,86.18,163.29,412.77,Single-ply,SBD,M
Boys,67.13,11,Cameron Gray,Navasota,61.96,136.08,86.18,179.17,401.43,Single-ply,SBD,M
Boys,67.13,12,Zach Hawkins,Conroe The Woodlands,63.23,122.47,88.45,136.08,347,Single-ply,SBD,M
Boys,67.13,13,Andrew Smalls,Brookshire Royal,65.32,111.13,83.91,133.81,328.85,Single-ply,SBD,M
Boys,67.13,DQ,Devin Trevino,Caldwell,61.23,163.29,99.79,,,Single-ply,SBD,M
Boys,67.13,DQ,Brad Bentley,Conroe The Woodlands,67.13,156.49,90.72,,,Single-ply,SBD,M
Boys,74.84,1,Dalton Cruz,Rockdale,74.48,201.85,122.47,219.99,544.31,Single-ply,SBD,M
Boys,74.84,2,Colton Frisby,Waller,74.39,208.65,106.59,213.19,528.44,Single-ply,SBD,M
Boys,74.84,3,Tristan Dudley,Rogers,74.66,204.12,129.27,192.78,526.17,Single-ply,SBD,M
Boys,74.84,4,Zach Riola,Cameron Yoe,74.03,192.78,138.35,190.51,521.63,Single-ply,SBD,M
Boys,74.84,5,Hector Martinez,Rogers,74.3,181.44,154.22,183.7,519.36,Single-ply,SBD,M
Boys,74.84,6,Frankie DeLeon,Navasota,74.84,190.51,95.25,181.44,467.2,Single-ply,SBD,M
Boys,82.1,7,Austin Cude,Navasota,74.98,174.63,106.59,181.44,462.66,Single-ply,SBD,M
Boys,74.84,8,Tristan Horton,Conroe The Woodlands,73.94,142.88,102.06,215.46,460.4,Single-ply,SBD,M
Boys,74.84,9,Patrick Clouston,College Station,73.75,165.56,77.11,163.29,405.97,Single-ply,SBD,M
Boys,74.84,10,Jesse Orozco,Hempstead,74.75,136.08,120.2,142.88,399.16,Single-ply,SBD,M
Boys,74.84,11,Aaron Ratliff,Normangee,73.57,158.76,81.65,156.49,396.89,Single-ply,SBD,M
Boys,74.84,12,Chase Spaw,College Station,73.3,149.69,68.04,165.56,383.29,Single-ply,SBD,M
Boys,74.84,13,Dustin Baranowski,Conroe The Woodlands,72.03,133.81,81.65,158.76,374.21,Single-ply,SBD,M
Boys,74.84,14,Weston Seets,Hempstead,70.13,113.4,56.7,129.27,299.37,Single-ply,SBD,M
Boys,74.84,15,Anthony Acosta,Navasota,69.67,90.72,61.23,117.93,269.89,Single-ply,SBD,M
Boys,82.1,1,Nick Gonzales,Rockdale,77.56,183.7,151.95,208.65,544.31,Single-ply,SBD,M
Boys,82.1,2,Carson Neal,Montgomery,78.65,217.72,131.54,195.04,544.31,Single-ply,SBD,M
Boys,82.1,3,Isaiah Vazauez,Bryan,80.83,195.04,127.01,172.37,494.42,Single-ply,SBD,M
Boys,82.1,4,Tyrique Hayes,College Station,81.19,183.7,115.67,167.83,467.2,Single-ply,SBD,M
Boys,89.81,5,Joey Lilly,Hempstead,82.19,181.44,97.52,176.9,455.86,Single-ply,SBD,M
Boys,82.1,6,Aiden Parsi,College Station,80.92,172.37,115.67,161.03,449.06,Single-ply,SBD,M
Boys,82.1,7,Tim Cone,Waller,77.11,174.63,83.91,188.24,446.79,Single-ply,SBD,M
Boys,82.1,8,Dave Harris,Navasota,76.93,163.29,90.72,176.9,430.91,Single-ply,SBD,M
Boys,82.1,9,Carter Clouston,College Station,79.74,163.29,77.11,161.03,401.43,Single-ply,SBD,M
Boys,82.1,10,Jacob Wallace #2,Conroe The Woodlands,80.74,145.15,81.65,163.29,390.09,Single-ply,SBD,M
Boys,82.1,11,Fabian Harvey,Hempstead,78.11,127.01,79.38,136.08,342.46,Single-ply,SBD,M
Boys,82.1,DQ,Devin Burchell,Bryan Rudder,78.56,,77.11,,,Single-ply,SBD,M
Boys,89.81,1,Austin Ellis,Bryan Rudder,85.73,272.16,158.76,219.99,650.91,Single-ply,SBD,M
Boys,99.79,2,Howard Horn,Navasota,90.04,213.19,151.95,251.74,616.89,Single-ply,SBD,M
Boys,89.81,3,Desmond Payton,College Station,83.1,258.55,102.06,254.01,614.62,Single-ply,SBD,M
Boys,89.81,4,Desmond Calhoun,Navasota,89.72,213.19,124.74,267.62,605.55,Single-ply,SBD,M
Boys,89.81,5,Joseph Mendoza,Giddings,85.73,240.4,127.01,235.87,603.28,Single-ply,SBD,M
Boys,89.81,6,Sam Garza,Montgomery,85.73,233.6,154.22,213.19,601.01,Single-ply,SBD,M
Boys,89.81,7,Tyler Ray,Magnolia West,88.18,229.06,147.42,208.65,585.13,Single-ply,SBD,M
Boys,89.81,8,Andrew Jenkins,Rockdale,87.82,192.78,158.76,226.8,578.33,Single-ply,SBD,M
Boys,89.81,9,Thomas Ewing,Giddings,82.74,222.26,120.2,231.33,573.79,Single-ply,SBD,M
Boys,89.81,10,Trey Taylor,Brookshire Royal,89.63,219.99,124.74,215.46,560.19,Single-ply,SBD,M
Boys,89.81,11,Nathan Callway,Magnolia West,88.18,204.12,138.35,192.78,535.24,Single-ply,SBD,M
Boys,89.81,12,Jamon Anderson,Montgomery,88.27,195.04,124.74,213.19,532.97,Single-ply,SBD,M
Boys,89.81,13,Alex Rodriguez #4,Bryan Rudder,87.91,199.58,117.93,210.92,528.44,Single-ply,SBD,M
Boys,89.81,14,Logan Foust,College Station A&M Cons,88.81,192.78,131.54,201.85,526.17,Single-ply,SBD,M
Boys,89.81,15,Bryson Jones,Rogers,87.45,185.97,124.74,199.58,510.29,Single-ply,SBD,M
Boys,89.81,16,Tristan Batts,College Station A&M Cons,89.45,195.04,104.33,188.24,487.61,Single-ply,SBD,M
Boys,89.81,17,Darrell Fobbes,Brookshire Royal,86.91,174.63,83.91,188.24,446.79,Single-ply,SBD,M
Boys,89.81,18,Rene Troche-Baez,Conroe The Woodlands,87.54,149.69,81.65,183.7,415.04,Single-ply,SBD,M
Boys,89.81,DQ,Jamie Czajkowski,Rockdale,86.45,278.96,195.04,,,Single-ply,SBD,M
Boys,99.79,1,Antwan Heath,Caldwell,97.43,233.6,140.61,240.4,614.62,Single-ply,SBD,M
Boys,99.79,2,Wayne Ellard,College Station,96.16,249.48,147.42,204.12,601.01,Single-ply,SBD,M
Boys,99.79,3,Joseph Huffman,Rogers,98.7,206.38,136.08,213.19,555.65,Single-ply,SBD,M
Boys,99.79,4,Justin Craigo,Normangee,96.16,183.7,138.35,195.04,517.1,Single-ply,SBD,M
Boys,99.79,5,Travis Hyatt,Waller,92.99,201.85,92.99,204.12,498.95,Single-ply,SBD,M
Boys,99.79,6,Aaron Leventis,College Station A&M Cons,99.7,185.97,129.27,181.44,496.68,Single-ply,SBD,M
Boys,99.79,7,Danny Barrientos,College Station,94.8,213.19,106.59,167.83,487.61,Single-ply,SBD,M
Boys,99.79,8,David Ramierez,Navasota,95.8,199.58,108.86,176.9,485.34,Single-ply,SBD,M
Boys,99.79,9,Chris York,Waller,96.98,179.17,92.99,181.44,453.59,Single-ply,SBD,M
Boys,99.79,10,Justin Pachek,Montgomery,95.07,170.1,102.06,158.76,430.91,Single-ply,SBD,M
Boys,99.79,11,Zach Day,Waller,92.17,158.76,81.65,158.76,399.16,Single-ply,SBD,M
Boys,99.79,DQ,Ryan Welch,College Station,90.36,192.78,95.25,,,Single-ply,SBD,M
Boys,109.77,1,Juan Nunez,Caldwell,100.52,254.01,158.76,226.8,639.57,Single-ply,SBD,M
Boys,109.77,2,Dustin Castleberry,Montgomery,107.86,244.94,140.61,233.6,619.15,Single-ply,SBD,M
Boys,109.77,3,Jose Guevara,Magnolia West,109.04,238.14,138.35,226.8,603.28,Single-ply,SBD,M
Boys,109.77,4,Jaylin Minor,Navasota,100.24,226.8,136.08,229.06,591.94,Single-ply,SBD,M
Boys,124.74,5,Christian Jones,Navasota,109.91,210.92,142.88,199.58,553.38,Single-ply,SBD,M
Boys,109.77,6,Coby Foster,College Station A&M Cons,104.78,210.92,124.74,204.12,539.77,Single-ply,SBD,M
Boys,109.77,7,Drew Rodriguez,College Station,104.42,208.65,120.2,183.7,512.56,Single-ply,SBD,M
Boys,109.77,8,Arthur Reyes,Bryan,105.23,192.78,115.67,181.44,489.88,Single-ply,SBD,M
Boys,109.77,9,Justin Robertson,Waller,104.24,176.9,99.79,204.12,480.81,Single-ply,SBD,M
Boys,109.77,10,Martin Vences,Brookshire Royal,107.5,190.51,99.79,188.24,478.54,Single-ply,SBD,M
Boys,109.77,11,Trey Hallman,Hempstead,108.41,174.63,124.74,165.56,464.93,Single-ply,SBD,M
Boys,109.77,12,Jordan Seymore,College Station,109.41,204.12,90.72,170.1,464.93,Single-ply,SBD,M
Boys,109.77,DQ,Jake Hollech,Magnolia West,107.5,176.9,122.47,,,Single-ply,SBD,M
Boys,109.77,DQ,Roberto Requena,Caldwell,108.86,,,,,Single-ply,SBD,M
Boys,124.74,1,Dylon Isom,Normangee,123.74,263.08,129.27,244.94,637.3,Single-ply,SBD,M
Boys,124.74,2,Cody Skrivanek,Magnolia West,119.2,249.48,158.76,226.8,635.03,Single-ply,SBD,M
Boys,124.74,3,Andrew Rush,Waller,121.65,272.16,115.67,231.33,619.15,Single-ply,SBD,M
Boys,124.74,4,Erik Medina,Conroe Woodlands College Park,110.31,235.87,142.88,222.26,601.01,Single-ply,SBD,M
Boys,124.74,5,Blake Wilkinson,College Station A&M Cons,112.58,197.31,124.74,204.12,526.17,Single-ply,SBD,M
Boys,124.74,6,Cory Ross,Navasota,116.94,185.97,149.69,188.24,523.9,Single-ply,SBD,M
Boys,124.74,7,Dishawn Keese,Brookshire Royal,117.39,181.44,136.08,176.9,494.42,Single-ply,SBD,M
Boys,124.74,8,Cashman Smith,Montgomery,115.12,158.76,92.99,158.76,410.5,Single-ply,SBD,M
Boys,124.74,DQ,Donall Watson,Hempstead,122.11,215.46,,,,Single-ply,SBD,M
Boys,124.74+,1,Jordan Wells,Navasota,128.46,285.76,176.9,281.23,743.89,Single-ply,SBD,M
Boys,124.74+,2,Osiel Cerna,Magnolia,132.9,258.55,149.69,215.46,623.69,Single-ply,SBD,M
Boys,124.74+,3,Trevin Pomier,Navasota,179.85,238.14,129.27,213.19,580.6,Single-ply,SBD,M
Boys,124.74+,DQ,Seth Blendermann,Magnolia West,127.46,217.72,,,,Single-ply,SBD,M
